{
  "artifactGenerations" : [ ],
  "artifactId" : "demo-project",
  "groupId" : "org.finos.test.demo",
  "metamodelDependencies" : [ ],
  "projectDependencies" : [ ],
  "projectId" : "48248747",
  "projectStructureVersion" : {
    "extensionVersion" : 2,
    "version" : 12
  }
}